#chr	pos_CYP2D6	base_ALT	pos_CYP2D7	base_REF	variant_type	variant_name
chr22	42126611	GTCACCAGGAAA	42140315	CTCACCAGGAAA	gene_conversion	g.42126611C>G
chr22	42126655	TCCAGTGGGCACAGTGGGCACC	42140358	TCCAGTGGGCACC	indel	g.42126656-42126657insAGTGGGCAC
chr22	42126715	T	42140419	C	snp	g.42126715C>T
chr22	42126758	A	42140462	G	snp	g.42126758G>A
chr22	42126877	A	42140581	G	snp	g.42126877G>A
chr22	42126914	G	42140618	c,t	snp_multi	g.42126914C>G
chr22	42126914	T	42140618	c,g	snp_multi	g.42126914C>T
chr22	42126926	A	42140630	G	snp	g.42126926G>A
chr22	42127457	T	42141162	C	snp	g.42127457C>T
chr22	42127473	T	42141178	C	snp	g.42127473C>T
chr22	42127503	CCAGGGGGAT	42141208	CCAGGGGGAC	snp	g.42127512C>T
chr22	42127514	G	42141219	A	snp	g.42127514A>G
chr22	42127523	G	42141228	A	snp	g.42127523A>G
chr22	42127530	GCACACCT	42141235	GCACCT	indel	g.42127533-42127534insAC
chr22	42127537	ATGAATCACGGCAGTGGTGCAGGGCATGC	42141242	ATGAATCACGGCAGTGGTGTAGGGCATGT,ATGAATCACGGCAGTGGTGTAGGGCATGC,ATGAATCACGGCAGTGGTGCAGGGCATGT	snp	g.42127565T>C
chr22	42127589	T	42141294	C	snp	g.42127589C>T
chr22	42127590	A	42141295	G	snp	g.42127590G>A
chr22	42127593	C	42141298	G	snp	g.42127593G>C
chr22	42127602	T	42141307	C	snp	g.42127602C>T
chr22	42127605	G	42141310	T	snp	g.42127605T>G
chr22	42127608	T	42141313	C	snp	g.42127608C>T
chr22	42127610	C	42141315	T	snp	g.42127610T>C
chr22	42127611	T	42141316	C	snp	g.42127611C>T
chr22	42127619	G	42141324	T	snp	g.42127619T>G
chr22	42127631	G	42141336	C	snp	g.42127631C>G
chr22	42127634	A	42141339	C	snp	g.42127634C>A
chr22	42127803	T	42141495	C	snp	g.42127803C>T
chr22	42127841	G	42141533	C	snp	g.42127841C>G
chr22	42127845	GAT	42141537	GCAC	indel	g.42127846delCACATCCGGATGTAGGATC
chr22	42127852	T	42141544	C	snp	g.42127852C>T
chr22	42127853	A	42141545	G	gene_conversion	g.42127853G>A
chr22	42127856	G	42141548	T	snp	g.42127856T>G
chr22	42127899	C	42141591	T	snp	g.42127899T>C
chr22	42127922	G	42141614	A	snp	g.42127922A>G
chr22	42127938	G	42141630	T	snp	g.42127938T>G
chr22	42127941	A	42141633	G	gene_conversion	g.42127941G>A
chr22	42127962	TC	42141654	TGC	indel	g.42127963delG
chr22	42127973	CTCCCCTTGGCCTGAGCAGGGCCGAGAGC	42141665	TTCCCCTTGGCCTGAGCAGGGCCGAGAGC	gene_conversion	g.42127973T>C
chr22	42128160	T	42141854	g,a	snp_multi	g.42128160G>T
chr22	42128173	CCTCCA	42141867	CCTTCTCC	indel	g.42128174delCTT
chr22	42128181	T	42141875	A	gene_conversion	g.42128181A>T
chr22	42128185	T	42141879	C	gene_conversion	g.42128185C>T
chr22	42128198	CTCAAGTCA	42141892	CTCAGTCA,CTCAGGT	indel_multi	g.42128201-42128202insA
chr22	42128198	CTCAGGT	42141892	CTCAGTCAGG,CTCAAGTCA	indel_multi	g.42128203delTCAG
chr22	42128211	CGGGGGGGGC	42141905	CGGGGGGGC,CGGGGTGGC	indel	g.42128218-42128219insG
chr22	42128212	A	42141906	G	snp	g.42128212G>A
chr22	42128215	A	42141909	G	snp	g.42128215G>A
chr22	42128217	T	42141911	G	snp	g.42128217G>T
chr22	42128235	A	42141929	G	snp	g.42128235G>A
chr22	42128241	CGT	42141935	CTGT	indel	g.42128242delT
chr22	42128248	CAGCA	42141942	CAGTT	indel	g.42128251delAGTT
chr22	42128272	G	42141966	T	snp	g.42128272T>G
chr22	42128308	A	42142002	C	snp	g.42128308C>A
chr22	42128321	GTGCG	42142015	ATGCA	snp	g.42128325A>G
chr22	42128323	GCAGGAC	42142011	GCAGGAGGAC	indel	g.42128326delGGA
chr22	42128329	A	42142023	G	snp	g.42128329G>A
chr22	42128340	A	42142034	G	snp	g.42128340G>A
chr22	42128351	T	42142045	C	snp	g.42128351C>T
chr22	42128795	AC	42142490	AGC	indel	g.42128796delG
chr22	42128807	T	42142502	C	snp	g.42128807C>T
chr22	42128811	CGATCCCCT	42142506	CAGTCCCT,CGATCCCT	indel_multi	g.42128817star20complex
chr22	42128812	G	42142507	a	snp	g.42128812A>G
chr22	42128813	A	42142508	g,t	snp_multi	g.42128813G>A
chr22	42128814	TCCCCT	42142509	TCCCT	indel	g.42128817-42128818insC
chr22	42128815	T	42142510	C	snp	g.42128815C>T
chr22	42128818	TCCCT	42142513	TCCT	indel	g.42128820-42128821insC
chr22	42128848	T	42142543	C	snp	g.42128848C>T
chr22	42128864	T	42142559	C	snp	g.42128864C>T
chr22	42128878	A	42142573	C	snp	g.42128878C>A
chr22	42128879	G	42142574	A	snp	g.42128879A>G
chr22	42128903	TTAC	42142598	TC	indel	g.42128903-42128904insTA
chr22	42128926	C	42142621	T	snp	g.42128926T>C
chr22	42128927	tGGGGCGAAAGGGGCGAAAGGGGCGAAAGGGGCGt	42142622	tGGGGCGAAAGGGGCGt,tGGGGCGAAAGGGGCGAAAGGGGCGt	indel_multi	g.42128936-42128937insGGGGCGAAAGGGGCGAAA
chr22	42128927	tGGGGCGAAAGGGGCGAAAGGGGCGt	42142622	tGGGGCGAAAGGGGCGt,tGGGGCGAAAGGGGCGAAAGGGGCGAAAGGGGCGt	indel_multi	g.42128936-42128937insGGGGCGAAA
chr22	42128932	T	42142627	C	snp	g.42128932C>T
chr22	42128933	A	42142628	G	snp	g.42128933G>A
chr22	42128945	T	42142640	C	snp	g.42128945C>T
chr22	42129033	A	42142728	c,t	snp_multi	g.42129033C>A
chr22	42129033	T	42142728	c,a	snp_multi	g.42129033C>T
chr22	42129036	CT	42142731	AG	gene_conversion	g.42129036A>C
chr22	42129037	T	42142733	G	snp	g.42129037G>T
chr22	42129042	C	42142737	T	gene_conversion	g.42129042T>C
chr22	42129044	A	42142739	G	snp	g.42129044G>A
chr22	42129056	G	42142751	C	snp	g.42129056C>G
chr22	42129071	A	42142766	t,g	snp_multi	g.42129071T>A
chr22	42129071	G	42142766	t,a	snp_multi	g.42129071T>G
chr22	42129075	T	42142770	C	snp	g.42129075C>T
chr22	42129083	CCT	42142778	CACT	indel	g.42129084delA
chr22	42129087	C	42142782	G	snp	g.42129087G>C
chr22	42129098	C	42142793	T	snp	g.42129098T>C
chr22	42129113	G	42142808	A	snp	g.42129113A>G
chr22	42129130	G	42142825	C	snp	g.42129130C>G
chr22	42129132	T	42142827	C	snp	g.42129132C>T
chr22	42129134	A	42142829	G	snp	g.42129134G>A
chr22	42129155	T	42142850	C	snp	g.42129155C>T
chr22	42129156	G	42142851	A	snp	g.42129156A>G
chr22	42129166	C	42142861	A	snp	g.42129166A>C
chr22	42129174	A	42142869	C	gene_conversion	g.42129174C>A
chr22	42129180	T	42142875	A	snp	g.42129180A>T
chr22	42129183	A	42142878	c,t	snp_multi	g.42129183C>A
chr22	42129183	T	42142878	c,a	snp_multi	g.42129183C>T
chr22	42129740	C	42143412	T	snp	g.42129740T>C
chr22	42129753	G	42143425	C	snp	g.42129753C>G
chr22	42129754	A	42143426	G	snp	g.42129754G>A
chr22	42129759	T	42143431	C	snp	g.42129759C>T
chr22	42129765	CCTGGTA	42143437	TCTGGGT,TCTGGAT	gene_conversion	g.42129765T>C
chr22	42129770	A	42143442	g,t	snp_multi	g.42129770G>A
chr22	42129770	T	42143442	G	snp	g.42129770G>T
chr22	42129771	A	42143443	T	snp	g.42129771T>A
chr22	42129779	G	42143451	A	gene_conversion	g.42129779A>G
chr22	42129780	T	42143452	C	snp	g.42129780C>T
chr22	42129799	C	42143471	G	snp	g.42129799G>C
chr22	42129809	C	42143481	T	gene_conversion	g.42129809T>C
chr22	42129819	T	42143491	G	gene_conversion	g.42129819G>T
chr22	42129821	A	42143493	G	snp	g.42129821G>A
chr22	42129827	G	42143499	C	snp	g.42129827C>G
chr22	42129836	A	42143508	G	snp	g.42129836G>A
chr22	42129899	T	42143571	C	snp	g.42129899C>T
chr22	42129906	A	42143578	G	snp	g.42129906G>A
chr22	42130638	A	42144310	G	snp	g.42130638G>A
chr22	42130653	GCAAGG	42144325	GCAGG	gene_conversion	g.42130655-42130656insA
chr22	42130667	T	42144340	C	snp	g.42130667C>T
chr22	42130668	T	42144341	C	snp	g.42130668C>T
chr22	42130670	A	42144343	G	snp	g.42130670G>A
chr22	42130692	A	42144365	G	snp	g.42130692G>A
chr22	42130710	A	42144383	G	snp	g.42130710G>A
chr22	42130715	T	42144388	C	gene_conversion	g.42130715C>T
chr22	42130719	A	42144392	G	snp	g.42130719G>A
chr22	42130727	AGT	42144400	AGGT	snp	g.42130728delG
chr22	42130761	T	42144434	C	gene_conversion	g.42130761C>T
chr22	42130773	T	42144446	C	snp	g.42130773C>T
chr22	42130778	A	42144451	G	snp	g.42130778G>A
chr22	42130781	TCTTA	42144454	TCTA	indel	g.42130783-42130784insT
